<?xml version="1.0" encoding="UTF-8"?>
<testng-results ignored="0" total="2" passed="2" failed="0" skipped="0">
  <reporter-output>
  </reporter-output>
  <suite started-at="2021-06-19T09:13:33 CEST" name="Suite" finished-at="2021-06-19T09:14:49 CEST" duration-ms="76101">
    <groups>
    </groups>
    <test started-at="2021-06-19T09:13:33 CEST" name="SwiftTools_MT199" finished-at="2021-06-19T09:14:08 CEST" duration-ms="35424">
      <class name="TestCases.SwiftTools_MT199">
        <test-method is-config="true" signature="Initialization()[pri:0, instance:TestCases.SwiftTools_MT199@475e586c]" started-at="2021-06-19T09:13:33 CEST" name="Initialization" finished-at="2021-06-19T09:13:39 CEST" duration-ms="6054" status="PASS">
          <reporter-output>
          </reporter-output>
        </test-method> <!-- Initialization -->
        <test-method signature="MessageSend()[pri:0, instance:TestCases.SwiftTools_MT199@475e586c]" started-at="2021-06-19T09:13:39 CEST" name="MessageSend" finished-at="2021-06-19T09:14:08 CEST" duration-ms="29354" status="PASS">
          <reporter-output>
          </reporter-output>
        </test-method> <!-- MessageSend -->
      </class> <!-- TestCases.SwiftTools_MT199 -->
    </test> <!-- SwiftTools_MT199 -->
    <test started-at="2021-06-19T09:14:08 CEST" name="AMMSearchMessage" finished-at="2021-06-19T09:14:49 CEST" duration-ms="40645">
      <class name="TestCases.AMM_SearchMessage">
        <test-method is-config="true" signature="Initializtion()[pri:0, instance:TestCases.AMM_SearchMessage@7ff95560]" started-at="2021-06-19T09:14:08 CEST" name="Initializtion" finished-at="2021-06-19T09:14:13 CEST" duration-ms="4826" status="PASS">
          <reporter-output>
          </reporter-output>
        </test-method> <!-- Initializtion -->
        <test-method signature="MessageSearch()[pri:0, instance:TestCases.AMM_SearchMessage@7ff95560]" started-at="2021-06-19T09:14:13 CEST" name="MessageSearch" finished-at="2021-06-19T09:14:49 CEST" duration-ms="35819" status="PASS">
          <reporter-output>
          </reporter-output>
        </test-method> <!-- MessageSearch -->
      </class> <!-- TestCases.AMM_SearchMessage -->
    </test> <!-- AMMSearchMessage -->
  </suite> <!-- Suite -->
</testng-results>
